{
    "service": [
        { "id": "1", "mnuName": "Online Help" },
        { "id": "2", "mnuName": "Contact Us" },
        { "id": "3", "mnuName": "Order Status" },
        { "id": "4", "mnuName": "Change Location" },
        { "id": "5", "mnuName": "FAQ's" }
    ],
    "quickshop": [
        { "id": "1", "mnuName": "T-Shirt" },
        { "id": "2", "mnuName": "Mens" },
        { "id": "3", "mnuName": "Womens" },
        { "id": "4", "mnuName": "Gift Cards" },
        { "id": "5", "mnuName": "Shoes" }
    ],
    "policies": [
        { "id": "1", "mnuName": "Terms of Use" },
        { "id": "2", "mnuName": "Privacy Policy" },
        { "id": "3", "mnuName": "Refund Policy" },
        { "id": "4", "mnuName": "Billing System" },
        { "id": "5", "mnuName": "Ticket System" }
    ],
    "aboutshoppers": [
        { "id": "1", "menName": "Company Information" },
        { "id": "2", "menName": "Careers" },
        { "id": "3", "menName": "Store Location" },
        { "id": "4", "menName": "Affiliate Program" },
        { "id": "5", "menName": "Copyright" }
    ]
}